<svg xmlns="http://www.w3.org/2000/svg" width="126" height="126" fill="none" viewBox="0 0 126 126">
    <g clip-path="url(#prefix__clip0)">
        <path fill="#FD715C" d="M38.781 125.425l-7.503-14.289-16.117.835c-.849.044-1.411-.867-.99-1.606l30.346-53.277L71.014 72.18l-30.346 53.277c-.42.739-1.492.721-1.887-.032z"/>
        <path fill="#EE5646" d="M38.781 125.425l-7.503-14.289 26.487-46.502 13.249 7.546-30.346 53.277c-.42.739-1.492.721-1.887-.032z"/>
        <path fill="#EE5646" d="M87.309 125.425l7.503-14.289 16.117.835c.849.044 1.41-.867.99-1.606L81.573 57.088 55.075 72.18l30.347 53.277c.42.739 1.492.721 1.887-.032z"/>
        <path fill="#FD715C" d="M87.309 125.425l7.503-14.289-26.488-46.502-13.249 7.546 30.347 53.277c.42.739 1.492.721 1.887-.032z"/>
        <path fill="#FED066" d="M65.79 2.407L69.943.58c2.83-1.247 6.144-.43 8.071 1.989l2.83 3.55c1.19 1.495 2.953 2.42 4.858 2.551l4.53.31c3.084.213 5.64 2.477 6.222 5.514l.854 4.457c.36 1.877 1.491 3.516 3.119 4.517l3.864 2.38c2.633 1.621 3.843 4.814 2.948 7.773l-1.315 4.345c-.553 1.828-.313 3.805.662 5.448l2.316 3.904c1.578 2.66 1.167 6.048-1.002 8.252l-3.183 3.236c-1.34 1.362-2.047 3.224-1.947 5.132l.238 4.534c.161 3.087-1.779 5.896-4.723 6.84l-4.322 1.386c-1.82.584-3.31 1.905-4.109 3.64L87.96 84.46c-1.292 2.809-4.315 4.396-7.361 3.863l-4.471-.781c-1.882-.329-3.816.147-5.33 1.313l-3.596 2.77c-2.45 1.886-5.863 1.886-8.312 0l-3.596-2.77c-1.513-1.166-3.447-1.643-5.33-1.313l-4.47.781c-3.047.533-6.07-1.054-7.361-3.863l-1.897-4.124c-.799-1.735-2.289-3.056-4.109-3.64l-4.322-1.386c-2.944-.944-4.884-3.753-4.723-6.841l.238-4.533c.099-1.908-.607-3.77-1.947-5.132l-3.183-3.236c-2.168-2.204-2.58-5.593-1.002-8.252l2.316-3.904c.975-1.643 1.216-3.62.662-5.448L18.85 33.62c-.896-2.96.315-6.152 2.948-7.773l3.865-2.38c1.627-1.001 2.759-2.64 3.118-4.517l.855-4.457c.582-3.037 3.137-5.301 6.222-5.514l4.529-.311c1.905-.13 3.67-1.056 4.86-2.55l2.828-3.55C50.002.149 53.316-.668 56.146.578l4.155 1.83c1.749.77 3.74.77 5.488 0z"/>
        <path fill="#FED066" d="M65.79 2.407L69.943.58c2.83-1.247 6.144-.43 8.071 1.989l2.83 3.55c1.19 1.495 2.953 2.42 4.858 2.551l4.53.31c3.084.213 5.64 2.477 6.222 5.514l.854 4.457c.36 1.877 1.491 3.516 3.119 4.517l3.864 2.38c2.633 1.621 3.843 4.814 2.948 7.773l-1.315 4.345c-.553 1.828-.313 3.805.662 5.448l2.316 3.904c1.578 2.66 1.167 6.048-1.002 8.252l-3.183 3.236c-1.34 1.362-2.047 3.224-1.947 5.132l.238 4.534c.161 3.087-1.779 5.896-4.723 6.84l-4.322 1.386c-1.82.584-3.31 1.905-4.109 3.64L87.96 84.46c-1.292 2.809-4.315 4.396-7.361 3.863l-4.471-.781c-1.882-.329-3.816.147-5.33 1.313l-3.596 2.77c-2.45 1.886-5.863 1.886-8.312 0l-3.596-2.77c-1.513-1.166-3.447-1.643-5.33-1.313l-4.47.781c-3.047.533-6.07-1.054-7.361-3.863l-1.897-4.124c-.799-1.735-2.289-3.056-4.109-3.64l-4.322-1.386c-2.944-.944-4.884-3.753-4.723-6.841l.238-4.533c.099-1.908-.607-3.77-1.947-5.132l-3.183-3.236c-2.168-2.204-2.58-5.593-1.002-8.252l2.316-3.904c.975-1.643 1.216-3.62.662-5.448L18.85 33.62c-.896-2.96.315-6.152 2.948-7.773l3.865-2.38c1.627-1.001 2.759-2.64 3.118-4.517l.855-4.457c.582-3.037 3.137-5.301 6.222-5.514l4.529-.311c1.905-.13 3.67-1.056 4.86-2.55l2.828-3.55C50.002.149 53.316-.668 56.146.578l4.155 1.83c1.749.77 3.74.77 5.488 0z"/>
        <path fill="#FD715C" d="M95.073 46.52c0 17.69-14.34 32.03-32.029 32.03-17.689 0-32.028-14.34-32.028-32.03 0-17.689 14.34-32.028 32.028-32.028 17.69 0 32.03 14.34 32.03 32.028z"/>
        <path fill="#EE5646" d="M63.044 14.493c-2.243 0-4.434.231-6.548.67 14.548 3.023 25.48 15.913 25.48 31.358S71.045 74.856 56.496 77.88c2.114.44 4.305.671 6.548.671 17.69 0 32.03-14.34 32.03-32.029 0-17.69-14.34-32.028-32.03-32.028z"/>
        <path fill="#F5B556" d="M108.903 47.317l-2.316-3.904c-.975-1.643-1.215-3.62-.662-5.448l1.315-4.345c.895-2.96-.315-6.152-2.948-7.773l-3.864-2.38c-1.628-1.002-2.76-2.641-3.119-4.517l-.855-4.458c-.582-3.037-3.137-5.3-6.222-5.512l-4.529-.312c-1.905-.13-3.669-1.056-4.859-2.55l-2.83-3.55c-1.926-2.419-5.24-3.236-8.07-1.99l-2.68 1.18c17.473 7.345 29.743 24.62 29.743 44.763 0 17.202-8.949 32.312-22.444 40.933.519-.03 1.043-.003 1.563.089l4.472.781c3.046.532 6.069-1.054 7.36-3.863l1.897-4.124c.798-1.735 2.29-3.056 4.109-3.64l4.322-1.386c2.944-.944 4.883-3.753 4.722-6.841l-.237-4.533c-.1-1.908.607-3.77 1.947-5.132l3.183-3.236c2.168-2.204 2.58-5.593 1.002-8.252z"/>
        <path fill="#F2F2F2" d="M63.778 24.348l4.633 14.257c.102.317.399.532.732.532h14.99c.747 0 1.057.955.454 1.394l-12.128 8.81c-.27.198-.383.545-.28.862l4.632 14.257c.231.71-.581 1.3-1.185.862L63.498 56.51c-.27-.196-.636-.196-.905 0l-12.128 8.812c-.605.439-1.417-.151-1.186-.862l4.632-14.257c.103-.317-.01-.664-.28-.861L41.505 40.53c-.604-.439-.294-1.394.453-1.394h14.99c.334 0 .63-.215.733-.532l4.632-14.257c.23-.71 1.235-.71 1.466 0z"/>
    </g>
    <defs>
        <clipPath id="prefix__clip0">
            <path fill="#fff" d="M0 0H126V126H0z"/>
        </clipPath>
    </defs>
</svg>
